<?xml version="1.0" encoding="UTF-8" standalone="no"?>
<!-- Created with Inkscape (http://www.inkscape.org/) -->

<svg
   xmlns:dc="http://purl.org/dc/elements/1.1/"
   xmlns:cc="http://creativecommons.org/ns#"
   xmlns:rdf="http://www.w3.org/1999/02/22-rdf-syntax-ns#"
   xmlns:svg="http://www.w3.org/2000/svg"
   xmlns="http://www.w3.org/2000/svg"
   xmlns:sodipodi="http://sodipodi.sourceforge.net/DTD/sodipodi-0.dtd"
   xmlns:inkscape="http://www.inkscape.org/namespaces/inkscape"
   width="34.728954cm"
   height="30.162916cm"
   viewBox="0 0 347.28954 301.62916"
   version="1.1"
   id="svg8"
   inkscape:version="0.92.3 (2405546, 2018-03-11)"
   sodipodi:docname="ajax.svg"
   inkscape:export-filename="/home/pgeoffroy/dev/projets/projet-cours-simplon/images/ajax.png"
   inkscape:export-xdpi="300.01132"
   inkscape:export-ydpi="300.01132">
  <defs
     id="defs2">
    <marker
       inkscape:isstock="true"
       style="overflow:visible"
       id="marker5299"
       refX="0"
       refY="0"
       orient="auto"
       inkscape:stockid="Arrow2Mend">
      <path
         transform="scale(-0.6)"
         d="M 8.7185878,4.0337352 -2.2072895,0.01601326 8.7185884,-4.0017078 c -1.7454984,2.3720609 -1.7354408,5.6174519 -6e-7,8.035443 z"
         style="fill:#000000;fill-opacity:1;fill-rule:evenodd;stroke:#000000;stroke-width:0.625;stroke-linejoin:round;stroke-opacity:1"
         id="path5297"
         inkscape:connector-curvature="0" />
    </marker>
    <marker
       inkscape:isstock="true"
       style="overflow:visible"
       id="marker5182"
       refX="0"
       refY="0"
       orient="auto"
       inkscape:stockid="Arrow2Mend">
      <path
         transform="scale(-0.6)"
         d="M 8.7185878,4.0337352 -2.2072895,0.01601326 8.7185884,-4.0017078 c -1.7454984,2.3720609 -1.7354408,5.6174519 -6e-7,8.035443 z"
         style="fill:#000000;fill-opacity:1;fill-rule:evenodd;stroke:#000000;stroke-width:0.625;stroke-linejoin:round;stroke-opacity:1"
         id="path5180"
         inkscape:connector-curvature="0" />
    </marker>
    <marker
       inkscape:isstock="true"
       style="overflow:visible"
       id="marker3197"
       refX="0"
       refY="0"
       orient="auto"
       inkscape:stockid="Arrow2Mend">
      <path
         transform="scale(-0.6)"
         d="M 8.7185878,4.0337352 -2.2072895,0.01601326 8.7185884,-4.0017078 c -1.7454984,2.3720609 -1.7354408,5.6174519 -6e-7,8.035443 z"
         style="fill:#000000;fill-opacity:1;fill-rule:evenodd;stroke:#000000;stroke-width:0.625;stroke-linejoin:round;stroke-opacity:1"
         id="path3195"
         inkscape:connector-curvature="0" />
    </marker>
    <marker
       inkscape:stockid="Arrow2Mend"
       orient="auto"
       refY="0"
       refX="0"
       id="Arrow2Mend"
       style="overflow:visible"
       inkscape:isstock="true"
       inkscape:collect="always">
      <path
         id="path1455"
         style="fill:#000000;fill-opacity:1;fill-rule:evenodd;stroke:#000000;stroke-width:0.625;stroke-linejoin:round;stroke-opacity:1"
         d="M 8.7185878,4.0337352 -2.2072895,0.01601326 8.7185884,-4.0017078 c -1.7454984,2.3720609 -1.7354408,5.6174519 -6e-7,8.035443 z"
         transform="scale(-0.6)"
         inkscape:connector-curvature="0" />
    </marker>
    <marker
       inkscape:stockid="Arrow2Lend"
       orient="auto"
       refY="0"
       refX="0"
       id="Arrow2Lend"
       style="overflow:visible"
       inkscape:isstock="true">
      <path
         id="path1449"
         style="fill:#000000;fill-opacity:1;fill-rule:evenodd;stroke:#000000;stroke-width:0.625;stroke-linejoin:round;stroke-opacity:1"
         d="M 8.7185878,4.0337352 -2.2072895,0.01601326 8.7185884,-4.0017078 c -1.7454984,2.3720609 -1.7354408,5.6174519 -6e-7,8.035443 z"
         transform="matrix(-1.1,0,0,-1.1,-1.1,0)"
         inkscape:connector-curvature="0" />
    </marker>
    <marker
       inkscape:stockid="Arrow1Lend"
       orient="auto"
       refY="0"
       refX="0"
       id="Arrow1Lend"
       style="overflow:visible"
       inkscape:isstock="true">
      <path
         id="path1431"
         d="M 0,0 5,-5 -12.5,0 5,5 Z"
         style="fill:#000000;fill-opacity:1;fill-rule:evenodd;stroke:#000000;stroke-width:1.00000003pt;stroke-opacity:1"
         transform="matrix(-0.8,0,0,-0.8,-10,0)"
         inkscape:connector-curvature="0" />
    </marker>
    <marker
       inkscape:stockid="Arrow2Mend"
       orient="auto"
       refY="0"
       refX="0"
       id="Arrow2Mend-6"
       style="overflow:visible"
       inkscape:isstock="true"
       inkscape:collect="always">
      <path
         inkscape:connector-curvature="0"
         id="path1455-7"
         style="fill:#000000;fill-opacity:1;fill-rule:evenodd;stroke:#000000;stroke-width:0.625;stroke-linejoin:round;stroke-opacity:1"
         d="M 8.7185878,4.0337352 -2.2072895,0.01601326 8.7185884,-4.0017078 c -1.7454984,2.3720609 -1.7354408,5.6174519 -6e-7,8.035443 z"
         transform="scale(-0.6)" />
    </marker>
    <marker
       inkscape:isstock="true"
       style="overflow:visible"
       id="marker3197-3"
       refX="0"
       refY="0"
       orient="auto"
       inkscape:stockid="Arrow2Mend">
      <path
         inkscape:connector-curvature="0"
         transform="scale(-0.6)"
         d="M 8.7185878,4.0337352 -2.2072895,0.01601326 8.7185884,-4.0017078 c -1.7454984,2.3720609 -1.7354408,5.6174519 -6e-7,8.035443 z"
         style="fill:#000000;fill-opacity:1;fill-rule:evenodd;stroke:#000000;stroke-width:0.625;stroke-linejoin:round;stroke-opacity:1"
         id="path3195-6" />
    </marker>
    <marker
       inkscape:isstock="true"
       style="overflow:visible"
       id="marker5299-6"
       refX="0"
       refY="0"
       orient="auto"
       inkscape:stockid="Arrow2Mend">
      <path
         transform="scale(-0.6)"
         d="M 8.7185878,4.0337352 -2.2072895,0.01601326 8.7185884,-4.0017078 c -1.7454984,2.3720609 -1.7354408,5.6174519 -6e-7,8.035443 z"
         style="fill:#000000;fill-opacity:1;fill-rule:evenodd;stroke:#000000;stroke-width:0.625;stroke-linejoin:round;stroke-opacity:1"
         id="path5297-2"
         inkscape:connector-curvature="0" />
    </marker>
  </defs>
  <sodipodi:namedview
     id="base"
     pagecolor="#ffffff"
     bordercolor="#666666"
     borderopacity="1.0"
     inkscape:pageopacity="1"
     inkscape:pageshadow="2"
     inkscape:zoom="0.35"
     inkscape:cx="894.30106"
     inkscape:cy="525.52485"
     inkscape:document-units="mm"
     inkscape:current-layer="layer1"
     showgrid="false"
     inkscape:snap-global="true"
     inkscape:window-width="1600"
     inkscape:window-height="845"
     inkscape:window-x="0"
     inkscape:window-y="27"
     inkscape:window-maximized="1"
     inkscape:snap-bbox="true"
     inkscape:bbox-nodes="true"
     inkscape:snap-intersection-paths="false"
     inkscape:object-paths="false"
     inkscape:snap-smooth-nodes="true"
     inkscape:snap-nodes="false"
     fit-margin-top="1"
     fit-margin-left="1"
     fit-margin-bottom="1"
     fit-margin-right="1"
     units="cm"
     inkscape:showpageshadow="false">
    <inkscape:grid
       type="xygrid"
       id="grid1384"
       originx="-698.55411"
       originy="-30.821438" />
  </sodipodi:namedview>
  <metadata
     id="metadata5">
    <rdf:RDF>
      <cc:Work
         rdf:about="">
        <dc:format>image/svg+xml</dc:format>
        <dc:type
           rdf:resource="http://purl.org/dc/dcmitype/StillImage" />
        <dc:title />
      </cc:Work>
    </rdf:RDF>
  </metadata>
  <g
     inkscape:label="Calque 1"
     inkscape:groupmode="layer"
     id="layer1"
     transform="translate(-698.55417,35.450597)">
    <path
       style="opacity:1;fill:#000000;fill-opacity:0.49833889;stroke:none;stroke-width:1.10539305;stroke-miterlimit:2.66666675;stroke-dasharray:none;stroke-dashoffset:0;stroke-opacity:1"
       d="m 486.83335,-94.583336 a 14.552083,7.9375004 0 0 1 1.25005,0.0341 14.552083,7.9375004 0 0 0 -1.25005,-0.0341 z m -1.23661,0.0341 a 14.552083,7.9375004 0 0 0 -0.73898,0.0486 14.552083,7.9375004 0 0 1 0.73898,-0.0486 z m 3.17965,0.046 a 14.552083,7.9375004 0 0 1 0.74052,0.061 14.552083,7.9375004 0 0 0 -0.74052,-0.061 z m -4.61576,0.0599 a 14.552083,7.9375004 0 0 0 -0.73276,0.0899 14.552083,7.9375004 0 0 1 0.73276,-0.0899 z m 6.06785,0.0884 a 14.552083,7.9375004 0 0 1 0.69609,0.0971 14.552083,7.9375004 0 0 0 -0.69609,-0.0971 z m -7.48636,0.0971 a 14.552083,7.9375004 0 0 0 -0.70382,0.12713 14.552083,7.9375004 0 0 1 0.70382,-0.12713 z m 8.87595,0.12558 a 14.552083,7.9375004 0 0 1 0.68625,0.13642 14.552083,7.9375004 0 0 0 -0.68625,-0.13642 z m -10.24588,0.13436 a 14.552083,7.9375004 0 0 0 -0.68318,0.16691 14.552083,7.9375004 0 0 1 0.68318,-0.16691 z m 11.58843,0.16226 a 14.552083,7.9375004 0 0 1 0.65474,0.1726 14.552083,7.9375004 0 0 0 -0.65474,-0.1726 z m -12.90775,0.17208 a 14.552083,7.9375004 0 0 0 -0.63974,0.19999 14.552083,7.9375004 0 0 1 0.63974,-0.19999 z m 14.20069,0.19999 a 14.552083,7.9375004 0 0 1 0.61754,0.20671 14.552083,7.9375004 0 0 0 -0.61754,-0.20671 z m -15.45746,0.20671 a 14.552083,7.9375004 0 0 0 -0.58653,0.22892 14.552083,7.9375004 0 0 1 0.58653,-0.22892 z m 16.65584,0.22634 a 14.552083,7.9375004 0 0 1 0.59015,0.24494 14.552083,7.9375004 0 0 0 -0.59015,-0.24494 z m -17.82371,0.24339 a 14.552083,7.9375004 0 0 0 -0.54158,0.25942 14.552083,7.9375004 0 0 1 0.54158,-0.25942 z m 18.94872,0.25787 a 14.552083,7.9375004 0 0 1 0.54311,0.27595 14.552083,7.9375004 0 0 0 -0.54311,-0.27595 z m -20.03031,0.27595 a 14.552083,7.9375004 0 0 0 -0.48887,0.28629 14.552083,7.9375004 0 0 1 0.48887,-0.28629 z m 21.06538,0.28836 a 14.552083,7.9375004 0 0 1 0.4775,0.2961 14.552083,7.9375004 0 0 0 -0.4775,-0.2961 z m -22.03794,0.29817 a 14.552083,7.9375004 0 0 0 -0.43976,0.31574 14.552083,7.9375004 0 0 1 0.43976,-0.31574 z m 22.96398,0.31988 a 14.552083,7.9375004 0 0 1 0.41548,0.31677 14.552083,7.9375004 0 0 0 -0.41548,-0.31677 z m -23.82491,0.31729 a 14.552083,7.9375004 0 0 0 -0.3798,0.33745 14.552083,7.9375004 0 0 1 0.3798,-0.33745 z m 24.6202,0.33745 a 14.552083,7.9375004 0 0 1 0.36536,0.34726 14.552083,7.9375004 0 0 0 -0.36536,-0.34726 z m -25.36537,0.34726 a 14.552083,7.9375004 0 0 0 -0.31263,0.35347 14.552083,7.9375004 0 0 1 0.31263,-0.35347 z m 26.04336,0.35347 a 14.552083,7.9375004 0 0 1 0.29766,0.36277 14.552083,7.9375004 0 0 0 -0.29766,-0.36277 z m -26.65365,0.36277 a 14.552083,7.9375004 0 0 0 -0.2522,0.377237 14.552083,7.9375004 0 0 1 0.2522,-0.377237 z m 27.20351,0.377237 a 14.552083,7.9375004 0 0 1 0.22582,0.37052 14.552083,7.9375004 0 0 0 -0.22582,-0.37052 z m -27.68153,0.370001 a 14.552083,7.9375004 0 0 0 -0.1819,0.388607 14.552083,7.9375004 0 0 1 0.1819,-0.388607 z m 28.08822,0.385506 a 14.552083,7.9375004 0 0 1 0.15968,0.389126 14.552083,7.9375004 0 0 0 -0.15968,-0.389126 z m -28.42876,0.388609 a 14.552083,7.9375004 0 0 0 -0.10801,0.390676 14.552083,7.9375004 0 0 1 0.10801,-0.390676 z m 28.69591,0.389125 a 14.552083,7.9375004 0 0 1 0.0884,0.396357 14.552083,7.9375004 0 0 0 -0.0884,-0.396357 z m -28.89176,0.395841 a 14.552083,7.9375004 0 0 0 -0.062,0.676444 14.552083,7.9375004 0 0 1 0.062,-0.676444 z m -0.062,0.676444 v 3.96875 a 14.552083,7.9375004 0 0 0 14.55209,7.9375 14.552083,7.9375004 0 0 0 14.55208,-7.9375 v -3.96875 a 14.552083,7.9375004 0 0 1 -14.55208,7.9375 14.552083,7.9375004 0 0 1 -14.55209,-7.9375 z"
       id="path4505-0-5"
       inkscape:connector-curvature="0" />
    <text
       xml:space="preserve"
       style="font-style:normal;font-weight:normal;font-size:10.58333302px;line-height:1.25;font-family:sans-serif;letter-spacing:0px;word-spacing:0px;fill:#000000;fill-opacity:1;stroke:none;stroke-width:0.26458332"
       x="277.05658"
       y="-54.517857"
       id="text817"><tspan
         sodipodi:role="line"
         id="tspan815"
         x="277.05658"
         y="-54.517857"
         style="stroke-width:0.26458332">AJAX</tspan></text>
    <path
       style="fill:none;stroke:#000000;stroke-width:0.26458332px;stroke-linecap:butt;stroke-linejoin:miter;stroke-opacity:1"
       d="M 299.33814,86.462647 H 559.76373"
       id="path819"
       inkscape:connector-curvature="0" />
    <text
       xml:space="preserve"
       style="font-style:normal;font-weight:normal;font-size:10.58333302px;line-height:1.25;font-family:sans-serif;letter-spacing:0px;word-spacing:0px;fill:#000000;fill-opacity:1;stroke:none;stroke-width:0.26458332"
       x="291.89258"
       y="100.7183"
       id="text823"><tspan
         sodipodi:role="line"
         id="tspan821"
         x="291.89258"
         y="100.7183"
         style="stroke-width:0.26458332">Appli serveur</tspan></text>
    <circle
       style="opacity:1;fill:none;fill-opacity:1;stroke:#000000;stroke-width:1;stroke-miterlimit:2.66666675;stroke-dasharray:none;stroke-dashoffset:0;stroke-opacity:1"
       id="path825"
       cx="546.55359"
       cy="129.55655"
       r="10.961308" />
    <circle
       r="10.961308"
       cy="134.47025"
       cx="546.55359"
       id="circle827"
       style="opacity:1;fill:none;fill-opacity:1;stroke:#000000;stroke-width:1;stroke-miterlimit:2.66666675;stroke-dasharray:none;stroke-dashoffset:0;stroke-opacity:1" />
    <circle
       style="opacity:1;fill:none;fill-opacity:1;stroke:#000000;stroke-width:1;stroke-miterlimit:2.66666675;stroke-dasharray:none;stroke-dashoffset:0;stroke-opacity:1"
       id="circle829"
       cx="546.55359"
       cy="140.13989"
       r="10.961308" />
    <text
       xml:space="preserve"
       style="font-style:normal;font-weight:normal;font-size:10.58333302px;line-height:1.25;font-family:sans-serif;letter-spacing:0px;word-spacing:0px;fill:#000000;fill-opacity:1;stroke:none;stroke-width:0.26458332"
       x="537.86011"
       y="110.65774"
       id="text833"><tspan
         sodipodi:role="line"
         id="tspan831"
         x="537.86011"
         y="110.65774"
         style="stroke-width:0.26458332">BDD</tspan></text>
    <text
       xml:space="preserve"
       style="font-style:normal;font-weight:normal;font-size:10.58333302px;line-height:1.25;font-family:sans-serif;letter-spacing:0px;word-spacing:0px;fill:#000000;fill-opacity:1;stroke:none;stroke-width:0.26458332"
       x="513.29169"
       y="123.8869"
       id="text837"><tspan
         sodipodi:role="line"
         id="tspan835"
         x="513.29169"
         y="123.8869"
         style="stroke-width:0.26458332">D</tspan><tspan
         sodipodi:role="line"
         x="513.29169"
         y="137.11607"
         style="stroke-width:0.26458332"
         id="tspan839">A</tspan><tspan
         sodipodi:role="line"
         x="513.29169"
         y="150.34523"
         style="stroke-width:0.26458332"
         id="tspan841">O</tspan></text>
    <rect
       style="opacity:1;fill:none;fill-opacity:1;stroke:#000000;stroke-width:1;stroke-miterlimit:2.66666675;stroke-dasharray:none;stroke-dashoffset:0;stroke-opacity:1"
       id="rect843"
       width="29.860117"
       height="48.002975"
       x="498.92856"
       y="110.65774" />
    <path
       style="fill:none;stroke:#000000;stroke-width:0.26458332px;stroke-linecap:butt;stroke-linejoin:miter;stroke-opacity:1"
       d="m 525.76489,133.71428 h 6.80354"
       id="path845"
       inkscape:connector-curvature="0" />
    <path
       style="fill:none;stroke:#000000;stroke-width:0.26458332px;stroke-linecap:butt;stroke-linejoin:miter;stroke-opacity:1"
       d="m 530.26275,130.22381 2.30568,3.49047 -1.6266,2.81734"
       id="path847"
       inkscape:connector-curvature="0" />
    <text
       xml:space="preserve"
       style="font-style:normal;font-weight:normal;font-size:6.16462088px;line-height:1.25;font-family:sans-serif;letter-spacing:0px;word-spacing:0px;fill:#000000;fill-opacity:1;stroke:none;stroke-width:0.15411551"
       x="465.99994"
       y="94.259743"
       id="text851"><tspan
         sodipodi:role="line"
         id="tspan849"
         x="465.99994"
         y="94.259743"
         style="stroke-width:0.15411551">langage serveur</tspan></text>
    <path
       style="fill:none;stroke:#000000;stroke-width:0.26458332px;stroke-linecap:butt;stroke-linejoin:miter;stroke-opacity:1"
       d="M 479.48154,98.418739 H 530.53 v 78.844511 c 0,0 -55.43573,1.1442 -53.4539,0"
       id="path853"
       inkscape:connector-curvature="0" />
    <path
       style="fill:none;stroke:#000000;stroke-width:0.26458332px;stroke-linecap:butt;stroke-linejoin:miter;stroke-opacity:1"
       d="m 493.11226,135.5692 h 5.3454"
       id="path855"
       inkscape:connector-curvature="0" />
    <rect
       style="opacity:1;fill:none;fill-opacity:1;stroke:#000000;stroke-width:1;stroke-miterlimit:2.66666675;stroke-dasharray:none;stroke-dashoffset:0;stroke-opacity:1"
       id="rect843-3"
       width="29.860119"
       height="48.002975"
       x="460.27515"
       y="110.23137" />
    <text
       xml:space="preserve"
       style="font-style:normal;font-weight:normal;font-size:10.58333302px;line-height:1.25;font-family:sans-serif;letter-spacing:0px;word-spacing:0px;fill:#000000;fill-opacity:1;stroke:none;stroke-width:0.26458332"
       x="467.45441"
       y="122.20573"
       id="text874"><tspan
         sodipodi:role="line"
         x="467.45441"
         y="122.20573"
         style="stroke-width:0.26458332"
         id="tspan878">BUS</tspan><tspan
         sodipodi:role="line"
         x="467.45441"
         y="135.43489"
         style="stroke-width:0.26458332"
         id="tspan963">INE</tspan><tspan
         sodipodi:role="line"
         x="467.45441"
         y="148.66406"
         style="stroke-width:0.26458332"
         id="tspan965">SS</tspan></text>
    <path
       style="fill:none;stroke:#000000;stroke-width:0.37242672px;stroke-linecap:butt;stroke-linejoin:miter;stroke-opacity:1"
       d="m 479.52896,98.457234 h -60.4266 v 80.103876 l 55.65605,-1.33506"
       id="path880"
       inkscape:connector-curvature="0" />
    <text
       xml:space="preserve"
       style="font-style:normal;font-weight:normal;font-size:6.16462088px;line-height:1.25;font-family:sans-serif;letter-spacing:0px;word-spacing:0px;fill:#000000;fill-opacity:1;stroke:none;stroke-width:0.15411551"
       x="469.85901"
       y="184.84387"
       id="text851-6"><tspan
         sodipodi:role="line"
         id="tspan849-7"
         x="469.85901"
         y="184.84387"
         style="stroke-width:0.15411551">PHP</tspan></text>
    <rect
       style="opacity:1;fill:none;fill-opacity:1;stroke:#000000;stroke-width:1;stroke-miterlimit:2.66666675;stroke-dasharray:none;stroke-dashoffset:0;stroke-opacity:1"
       id="rect900"
       width="43.297665"
       height="43.297665"
       x="326.60333"
       y="123.00754" />
    <text
       xml:space="preserve"
       style="font-style:normal;font-weight:normal;font-size:6.16462088px;line-height:1.25;font-family:sans-serif;letter-spacing:0px;word-spacing:0px;fill:#000000;fill-opacity:1;stroke:none;stroke-width:0.15411551"
       x="328.47342"
       y="112.94837"
       id="text851-5"><tspan
         sodipodi:role="line"
         id="tspan849-3"
         x="328.47342"
         y="112.94837"
         style="stroke-width:0.15411551">Navigateur</tspan></text>
    <text
       xml:space="preserve"
       style="font-style:normal;font-weight:normal;font-size:6.16462088px;line-height:1.25;font-family:sans-serif;letter-spacing:0px;word-spacing:0px;fill:#000000;fill-opacity:1;stroke:none;stroke-width:0.15411551"
       x="342.27512"
       y="175.58115"
       id="text851-56"><tspan
         sodipodi:role="line"
         id="tspan849-2"
         x="342.27512"
         y="175.58115"
         style="stroke-width:0.15411551">Client</tspan></text>
    <path
       style="fill:none;stroke:#000000;stroke-width:0.26458332px;stroke-linecap:butt;stroke-linejoin:miter;stroke-opacity:1"
       d="m 457.39601,134.76739 h 5.3454"
       id="path855-9"
       inkscape:connector-curvature="0" />
    <rect
       style="opacity:1;fill:none;fill-opacity:1;stroke:#000000;stroke-width:1;stroke-miterlimit:2.66666675;stroke-dasharray:none;stroke-dashoffset:0;stroke-opacity:1"
       id="rect843-3-1"
       width="29.860119"
       height="48.002975"
       x="424.55887"
       y="109.42956" />
    <text
       xml:space="preserve"
       style="font-style:normal;font-weight:normal;font-size:10.58333302px;line-height:1.25;font-family:sans-serif;letter-spacing:0px;word-spacing:0px;fill:#000000;fill-opacity:1;stroke:none;stroke-width:0.26458332"
       x="431.73813"
       y="121.40392"
       id="text874-2"><tspan
         sodipodi:role="line"
         id="tspan872-7"
         x="431.73813"
         y="121.40392"
         style="stroke-width:0.26458332">con</tspan><tspan
         sodipodi:role="line"
         x="431.73813"
         y="134.63309"
         style="stroke-width:0.26458332"
         id="tspan876-0">trol</tspan><tspan
         sodipodi:role="line"
         x="431.73813"
         y="147.86226"
         style="stroke-width:0.26458332"
         id="tspan878-9">ler</tspan></text>
    <rect
       style="opacity:1;fill:none;fill-opacity:1;stroke:#000000;stroke-width:1;stroke-miterlimit:2.66666675;stroke-dasharray:none;stroke-dashoffset:0;stroke-opacity:1"
       id="rect967"
       width="30.468725"
       height="11.759859"
       x="421.48407"
       y="162.02888" />
    <text
       xml:space="preserve"
       style="font-style:normal;font-weight:normal;font-size:10.58333302px;line-height:1.25;font-family:sans-serif;letter-spacing:0px;word-spacing:0px;fill:#000000;fill-opacity:1;stroke:none;stroke-width:0.26458332"
       x="425.4931"
       y="171.91786"
       id="text971"><tspan
         sodipodi:role="line"
         id="tspan969"
         x="425.4931"
         y="171.91786"
         style="stroke-width:0.26458332">View</tspan></text>
    <path
       style="fill:none;stroke:#000000;stroke-width:0.26458332px;stroke-linecap:butt;stroke-linejoin:miter;stroke-opacity:1"
       d="m 384.86312,135.37462 h 6.80354"
       id="path845-3"
       inkscape:connector-curvature="0" />
    <path
       style="fill:none;stroke:#000000;stroke-width:0.26458332px;stroke-linecap:butt;stroke-linejoin:miter;stroke-opacity:1"
       d="m 389.36098,131.88415 2.30568,3.49047 -1.6266,2.81734"
       id="path847-6"
       inkscape:connector-curvature="0" />
    <path
       style="fill:none;stroke:#000000;stroke-width:0.26458332px;stroke-linecap:butt;stroke-linejoin:miter;stroke-opacity:1"
       d="m 391.02032,150.19635 h -6.80354"
       id="path845-0"
       inkscape:connector-curvature="0" />
    <path
       style="fill:none;stroke:#000000;stroke-width:0.26458332px;stroke-linecap:butt;stroke-linejoin:miter;stroke-opacity:1"
       d="m 386.52246,153.68682 -2.30568,-3.49047 1.6266,-2.81734"
       id="path847-62"
       inkscape:connector-curvature="0" />
    <text
       xml:space="preserve"
       style="font-style:normal;font-weight:normal;font-size:6.16462088px;line-height:1.25;font-family:sans-serif;letter-spacing:0px;word-spacing:0px;fill:#000000;fill-opacity:1;stroke:none;stroke-width:0.15411551"
       x="372.03836"
       y="127.38093"
       id="text851-61"><tspan
         sodipodi:role="line"
         id="tspan849-8"
         x="372.03836"
         y="127.38093"
         style="stroke-width:0.15411551">requête HTTP</tspan></text>
    <text
       xml:space="preserve"
       style="font-style:normal;font-weight:normal;font-size:6.16462088px;line-height:1.25;font-family:sans-serif;letter-spacing:0px;word-spacing:0px;fill:#000000;fill-opacity:1;stroke:none;stroke-width:0.15411551"
       x="379.25464"
       y="161.05688"
       id="text851-7"><tspan
         sodipodi:role="line"
         id="tspan849-9"
         x="379.25464"
         y="161.05688"
         style="stroke-width:0.15411551">HTML</tspan></text>
    <path
       style="fill:none;stroke:#000000;stroke-width:0.26458332px;stroke-linecap:butt;stroke-linejoin:miter;stroke-opacity:1"
       d="m 437.98207,155.34216 v 6.80354"
       id="path845-0-2"
       inkscape:connector-curvature="0" />
    <path
       style="fill:none;stroke:#000000;stroke-width:0.26458332px;stroke-linecap:butt;stroke-linejoin:miter;stroke-opacity:1"
       d="m 441.47254,159.84002 -3.49047,2.30568 -2.81734,-1.6266"
       id="path847-62-0"
       inkscape:connector-curvature="0" />
    <text
       xml:space="preserve"
       style="font-style:normal;font-weight:normal;font-size:6.16462088px;line-height:1.25;font-family:sans-serif;letter-spacing:0px;word-spacing:0px;fill:#000000;fill-opacity:1;stroke:none;stroke-width:0.15411551"
       x="539.53052"
       y="164.54317"
       id="text851-6-2"><tspan
         sodipodi:role="line"
         id="tspan849-7-3"
         x="539.53052"
         y="164.54317"
         style="stroke-width:0.15411551">SQL</tspan></text>
    <text
       xml:space="preserve"
       style="font-style:normal;font-weight:normal;font-size:10.58333302px;line-height:1.25;font-family:sans-serif;letter-spacing:0px;word-spacing:0px;fill:#000000;fill-opacity:1;stroke:none;stroke-width:0.26458332"
       x="272.55847"
       y="-37.235043"
       id="text823-7"><tspan
         sodipodi:role="line"
         id="tspan821-5"
         x="272.55847"
         y="-37.235043"
         style="stroke-width:0.26458332">Appli client serveur</tspan></text>
    <text
       xml:space="preserve"
       style="font-style:normal;font-weight:normal;font-size:10.58333302px;line-height:1.25;font-family:sans-serif;letter-spacing:0px;word-spacing:0px;fill:#000000;fill-opacity:1;stroke:none;stroke-width:0.26458332"
       x="494.77081"
       y="202.12798"
       id="text1081"><tspan
         sodipodi:role="line"
         id="tspan1079"
         x="494.77081"
         y="202.12798"
         style="stroke-width:0.26458332">Data acces object</tspan></text>
    <circle
       style="opacity:1;fill:none;fill-opacity:1;stroke:#000000;stroke-width:1;stroke-miterlimit:2.66666675;stroke-dasharray:none;stroke-dashoffset:0;stroke-opacity:1"
       id="path825-9"
       cx="545.90479"
       cy="17.959667"
       r="10.961308" />
    <circle
       r="10.961308"
       cy="22.873369"
       cx="545.90479"
       id="circle827-2"
       style="opacity:1;fill:none;fill-opacity:1;stroke:#000000;stroke-width:1;stroke-miterlimit:2.66666675;stroke-dasharray:none;stroke-dashoffset:0;stroke-opacity:1" />
    <circle
       style="opacity:1;fill:none;fill-opacity:1;stroke:#000000;stroke-width:1;stroke-miterlimit:2.66666675;stroke-dasharray:none;stroke-dashoffset:0;stroke-opacity:1"
       id="circle829-2"
       cx="545.90479"
       cy="28.543016"
       r="10.961308" />
    <text
       xml:space="preserve"
       style="font-style:normal;font-weight:normal;font-size:10.58333302px;line-height:1.25;font-family:sans-serif;letter-spacing:0px;word-spacing:0px;fill:#000000;fill-opacity:1;stroke:none;stroke-width:0.26458332"
       x="537.2113"
       y="-0.93914121"
       id="text833-8"><tspan
         sodipodi:role="line"
         id="tspan831-9"
         x="537.2113"
         y="-0.93914121"
         style="stroke-width:0.26458332">BDD</tspan></text>
    <text
       xml:space="preserve"
       style="font-style:normal;font-weight:normal;font-size:10.58333302px;line-height:1.25;font-family:sans-serif;letter-spacing:0px;word-spacing:0px;fill:#000000;fill-opacity:1;stroke:none;stroke-width:0.26458332"
       x="512.64288"
       y="12.29002"
       id="text837-7"><tspan
         sodipodi:role="line"
         id="tspan835-3"
         x="512.64288"
         y="12.29002"
         style="stroke-width:0.26458332">D</tspan><tspan
         sodipodi:role="line"
         x="512.64288"
         y="25.519186"
         style="stroke-width:0.26458332"
         id="tspan839-6">A</tspan><tspan
         sodipodi:role="line"
         x="512.64288"
         y="38.748352"
         style="stroke-width:0.26458332"
         id="tspan841-1">O</tspan></text>
    <rect
       style="opacity:1;fill:none;fill-opacity:1;stroke:#000000;stroke-width:1;stroke-miterlimit:2.66666675;stroke-dasharray:none;stroke-dashoffset:0;stroke-opacity:1"
       id="rect843-2"
       width="29.860119"
       height="48.002975"
       x="498.27975"
       y="-0.93914121" />
    <path
       style="fill:none;stroke:#000000;stroke-width:0.26458332px;stroke-linecap:butt;stroke-linejoin:miter;stroke-opacity:1"
       d="m 525.11609,22.1174 h 6.80354"
       id="path845-9"
       inkscape:connector-curvature="0" />
    <path
       style="fill:none;stroke:#000000;stroke-width:0.26458332px;stroke-linecap:butt;stroke-linejoin:miter;stroke-opacity:1"
       d="m 529.61395,18.62693 2.30568,3.49047 -1.6266,2.817342"
       id="path847-3"
       inkscape:connector-curvature="0" />
    <path
       style="fill:none;stroke:#000000;stroke-width:0.26458332px;stroke-linecap:butt;stroke-linejoin:miter;stroke-opacity:1"
       d="m 478.83274,-13.178141 h 51.04846 v 78.844513 c 0,0 -55.43573,1.144199 -53.4539,0"
       id="path853-7"
       inkscape:connector-curvature="0" />
    <path
       style="fill:none;stroke:#000000;stroke-width:0.26458332px;stroke-linecap:butt;stroke-linejoin:miter;stroke-opacity:1"
       d="m 492.46346,23.97232 h 5.3454"
       id="path855-8"
       inkscape:connector-curvature="0" />
    <rect
       style="opacity:1;fill:none;fill-opacity:1;stroke:#000000;stroke-width:1;stroke-miterlimit:2.66666675;stroke-dasharray:none;stroke-dashoffset:0;stroke-opacity:1"
       id="rect843-3-4"
       width="29.860119"
       height="48.002975"
       x="459.62634"
       y="-1.3655099" />
    <text
       xml:space="preserve"
       style="font-style:normal;font-weight:normal;font-size:10.58333302px;line-height:1.25;font-family:sans-serif;letter-spacing:0px;word-spacing:0px;fill:#000000;fill-opacity:1;stroke:none;stroke-width:0.26458332"
       x="466.8056"
       y="10.608845"
       id="text874-5"><tspan
         sodipodi:role="line"
         x="466.8056"
         y="10.608845"
         style="stroke-width:0.26458332"
         id="tspan878-0">BUS</tspan><tspan
         sodipodi:role="line"
         x="466.8056"
         y="23.838011"
         style="stroke-width:0.26458332"
         id="tspan963-3">INE</tspan><tspan
         sodipodi:role="line"
         x="466.8056"
         y="37.067177"
         style="stroke-width:0.26458332"
         id="tspan965-6">SS</tspan></text>
    <path
       style="fill:none;stroke:#000000;stroke-width:0.3677493px;stroke-linecap:butt;stroke-linejoin:miter;stroke-opacity:1"
       d="m 478.87819,-13.141309 h -58.91586 v 80.1072 l 54.26458,-1.335117"
       id="path880-1"
       inkscape:connector-curvature="0" />
    <path
       style="fill:none;stroke:#000000;stroke-width:0.26458332px;stroke-linecap:butt;stroke-linejoin:miter;stroke-opacity:1"
       d="m 456.74721,23.170511 h 5.3454"
       id="path855-9-3"
       inkscape:connector-curvature="0" />
    <rect
       style="opacity:1;fill:none;fill-opacity:1;stroke:#000000;stroke-width:1;stroke-miterlimit:2.66666675;stroke-dasharray:none;stroke-dashoffset:0;stroke-opacity:1"
       id="rect843-3-1-2"
       width="29.860119"
       height="48.002975"
       x="423.91006"
       y="-2.1673231" />
    <text
       xml:space="preserve"
       style="font-style:normal;font-weight:normal;font-size:10.58333302px;line-height:1.25;font-family:sans-serif;letter-spacing:0px;word-spacing:0px;fill:#000000;fill-opacity:1;stroke:none;stroke-width:0.26458332"
       x="431.08932"
       y="9.8070431"
       id="text874-2-0"><tspan
         sodipodi:role="line"
         id="tspan872-7-6"
         x="431.08932"
         y="9.8070431"
         style="stroke-width:0.26458332">con</tspan><tspan
         sodipodi:role="line"
         x="431.08932"
         y="23.036209"
         style="stroke-width:0.26458332"
         id="tspan876-0-1">trol</tspan><tspan
         sodipodi:role="line"
         x="431.08932"
         y="36.265377"
         style="stroke-width:0.26458332"
         id="tspan878-9-5">ler</tspan></text>
    <text
       xml:space="preserve"
       style="font-style:normal;font-weight:normal;font-size:6.16462088px;line-height:1.25;font-family:sans-serif;letter-spacing:0px;word-spacing:0px;fill:#000000;fill-opacity:1;stroke:none;stroke-width:0.15411551"
       x="538.88171"
       y="52.946281"
       id="text851-6-2-6"><tspan
         sodipodi:role="line"
         id="tspan849-7-3-9"
         x="538.88171"
         y="52.946281"
         style="stroke-width:0.15411551">SQL</tspan></text>
    <path
       style="fill:none;stroke:#000000;stroke-width:0.26458332px;stroke-linecap:butt;stroke-linejoin:miter;stroke-opacity:1"
       d="M 351.59514,-0.73858001 397.7082,15.13642"
       id="path845-3-3"
       inkscape:connector-curvature="0"
       sodipodi:nodetypes="cc" />
    <path
       style="fill:none;stroke:#000000;stroke-width:0.26458332px;stroke-linecap:butt;stroke-linejoin:miter;stroke-opacity:1"
       d="m 395.40252,11.64595 2.30568,3.49047 -1.6266,2.81734"
       id="path847-6-7"
       inkscape:connector-curvature="0" />
    <text
       xml:space="preserve"
       style="font-style:normal;font-weight:normal;font-size:6.16462088px;line-height:1.25;font-family:sans-serif;letter-spacing:0px;word-spacing:0px;fill:#000000;fill-opacity:1;stroke:none;stroke-width:0.15411551"
       x="371.6543"
       y="1.8510622"
       id="text851-61-4"><tspan
         sodipodi:role="line"
         id="tspan849-8-5"
         x="371.6543"
         y="1.8510622"
         style="stroke-width:0.15411551">requête HTTP</tspan></text>
    <path
       style="fill:none;stroke:#000000;stroke-width:0.26458332px;stroke-linecap:butt;stroke-linejoin:miter;stroke-opacity:1"
       d="m 397.21553,24.757331 h -6.80354"
       id="path845-0-25"
       inkscape:connector-curvature="0" />
    <path
       style="fill:none;stroke:#000000;stroke-width:0.26458332px;stroke-linecap:butt;stroke-linejoin:miter;stroke-opacity:1"
       d="m 392.71767,28.247801 -2.30568,-3.49047 1.6266,-2.81734"
       id="path847-62-4"
       inkscape:connector-curvature="0" />
    <text
       xml:space="preserve"
       style="font-style:normal;font-weight:normal;font-size:6.16462088px;line-height:1.25;font-family:sans-serif;letter-spacing:0px;word-spacing:0px;fill:#000000;fill-opacity:1;stroke:none;stroke-width:0.15411551"
       x="388.28528"
       y="36.13065"
       id="text851-61-4-7"><tspan
         sodipodi:role="line"
         id="tspan849-8-5-4"
         x="388.28528"
         y="36.13065"
         style="stroke-width:0.15411551">JSON</tspan></text>
    <text
       xml:space="preserve"
       style="font-style:normal;font-weight:normal;font-size:4.36806726px;line-height:1.25;font-family:sans-serif;letter-spacing:0px;word-spacing:0px;fill:#000000;fill-opacity:1;stroke:none;stroke-width:0.10920167"
       x="466.10306"
       y="154.78801"
       id="text851-7-4"><tspan
         sodipodi:role="line"
         id="tspan849-9-3"
         x="466.10306"
         y="154.78801"
         style="stroke-width:0.10920167">SERVICES</tspan></text>
    <text
       xml:space="preserve"
       style="font-style:normal;font-weight:normal;font-size:4.36806726px;line-height:1.25;font-family:sans-serif;letter-spacing:0px;word-spacing:0px;fill:#000000;fill-opacity:1;stroke:none;stroke-width:0.10920167"
       x="502.44376"
       y="156.74272"
       id="text851-7-4-0"><tspan
         sodipodi:role="line"
         id="tspan849-9-3-7"
         x="502.44376"
         y="156.74272"
         style="stroke-width:0.10920167">Repository</tspan></text>
    <text
       xml:space="preserve"
       style="font-style:normal;font-weight:normal;font-size:4.36806726px;line-height:1.25;font-family:sans-serif;letter-spacing:0px;word-spacing:0px;fill:#000000;fill-opacity:1;stroke:none;stroke-width:0.10920167"
       x="456.33942"
       y="170.12309"
       id="text851-7-4-8"><tspan
         sodipodi:role="line"
         id="tspan849-9-3-6"
         x="456.33942"
         y="170.12309"
         style="stroke-width:0.10920167">Template</tspan></text>
    <rect
       style="opacity:1;fill:none;fill-opacity:1;stroke:#000000;stroke-width:1.46724081;stroke-miterlimit:2.66666675;stroke-dasharray:none;stroke-dashoffset:0;stroke-opacity:1"
       id="rect900-8"
       width="60.217327"
       height="67.020897"
       x="300.866"
       y="-29.715878" />
    <text
       xml:space="preserve"
       style="font-style:normal;font-weight:normal;font-size:6.16462088px;line-height:1.25;font-family:sans-serif;letter-spacing:0px;word-spacing:0px;fill:#000000;fill-opacity:1;stroke:none;stroke-width:0.15411551"
       x="293.24762"
       y="46.058636"
       id="text851-56-8"><tspan
         sodipodi:role="line"
         id="tspan849-2-4"
         x="293.24762"
         y="46.058636"
         style="stroke-width:0.15411551">Appli client HTML/CSS JS</tspan></text>
    <rect
       style="opacity:1;fill:none;fill-opacity:1;stroke:#000000;stroke-width:1;stroke-miterlimit:2.66666675;stroke-dasharray:none;stroke-dashoffset:0;stroke-opacity:1"
       id="rect1331"
       width="25.324406"
       height="30.994047"
       x="303.89285"
       y="-9.5386906" />
    <rect
       style="opacity:1;fill:none;fill-opacity:1;stroke:#000000;stroke-width:1;stroke-miterlimit:2.66666675;stroke-dasharray:none;stroke-dashoffset:0;stroke-opacity:1"
       id="rect1333"
       width="22.678572"
       height="30.238094"
       x="333.375"
       y="-8.7827387" />
    <text
       xml:space="preserve"
       style="font-style:normal;font-weight:normal;font-size:6.16462088px;line-height:1.25;font-family:sans-serif;letter-spacing:0px;word-spacing:0px;fill:#000000;fill-opacity:1;stroke:none;stroke-width:0.15411551"
       x="337.57892"
       y="7.2509451"
       id="text851-61-4-7-3"><tspan
         sodipodi:role="line"
         id="tspan849-8-5-4-1"
         x="337.57892"
         y="7.2509451"
         style="stroke-width:0.15411551">JS</tspan></text>
    <text
       xml:space="preserve"
       style="font-style:normal;font-weight:normal;font-size:6.16462088px;line-height:1.25;font-family:sans-serif;letter-spacing:0px;word-spacing:0px;fill:#000000;fill-opacity:1;stroke:none;stroke-width:0.15411551"
       x="309.98666"
       y="6.8729692"
       id="text851-61-4-7-4"><tspan
         sodipodi:role="line"
         id="tspan849-8-5-4-9"
         x="309.98666"
         y="6.8729692"
         style="stroke-width:0.15411551">HTML</tspan></text>
    <text
       xml:space="preserve"
       style="font-style:normal;font-weight:normal;font-size:6.10879421px;line-height:1.25;font-family:sans-serif;letter-spacing:0px;word-spacing:0px;fill:#000000;fill-opacity:1;stroke:none;stroke-width:0.15271986"
       x="364.78195"
       y="-6.375052"
       id="text1363"><tspan
         sodipodi:role="line"
         id="tspan1361"
         x="364.78195"
         y="-6.375052"
         style="stroke-width:0.15271986">AJAX</tspan></text>
    <ellipse
       style="opacity:1;fill:#000000;fill-opacity:1;stroke:none;stroke-width:1.10539305;stroke-miterlimit:2.66666675;stroke-dasharray:none;stroke-dashoffset:0;stroke-opacity:1"
       id="path4505"
       cx="453.76044"
       cy="-90.614586"
       rx="14.552083"
       ry="7.9375005" />
    <ellipse
       ry="7.9375005"
       rx="14.552083"
       cy="-86.645828"
       cx="453.76044"
       id="ellipse4507"
       style="opacity:1;fill:#000000;fill-opacity:1;stroke:none;stroke-width:1.10539305;stroke-miterlimit:2.66666675;stroke-dasharray:none;stroke-dashoffset:0;stroke-opacity:1" />
    <rect
       style="opacity:1;fill:#000000;fill-opacity:1;stroke:none;stroke-width:0.91654336;stroke-miterlimit:2.66666675;stroke-dasharray:none;stroke-dashoffset:0;stroke-opacity:1"
       id="rect4524"
       width="29.104166"
       height="3.9687486"
       x="439.20831"
       y="-90.614586" />
    <path
       style="opacity:1;fill:#000000;fill-opacity:0.49833889;stroke:none;stroke-width:1.10539305;stroke-miterlimit:2.66666675;stroke-dasharray:none;stroke-dashoffset:0;stroke-opacity:1"
       d="m 486.83333,-99.875036 a 14.552083,7.9375004 0 0 0 -14.55208,7.9375 v 3.968746 a 14.552083,7.9375004 0 0 0 14.55208,7.937499 14.552083,7.9375004 0 0 0 14.55209,-7.937499 v -3.968746 a 14.552083,7.9375004 0 0 0 -14.55209,-7.9375 z"
       id="path4505-0"
       inkscape:connector-curvature="0" />
    <path
       style="opacity:1;fill:#000000;fill-opacity:0.49833889;stroke:none;stroke-width:1.10539305;stroke-miterlimit:2.66666675;stroke-dasharray:none;stroke-dashoffset:0;stroke-opacity:1"
       d="m 486.83333,-89.291666 a 14.552083,7.9375005 0 0 1 1.25005,0.03411 14.552083,7.9375005 0 0 0 -1.25005,-0.03411 z m -1.23661,0.03411 a 14.552083,7.9375005 0 0 0 -0.73898,0.04857 14.552083,7.9375005 0 0 1 0.73898,-0.04857 z m 3.17965,0.04599 a 14.552083,7.9375005 0 0 1 0.74052,0.06098 14.552083,7.9375005 0 0 0 -0.74052,-0.06098 z m -4.61576,0.05994 a 14.552083,7.9375005 0 0 0 -0.73276,0.08992 14.552083,7.9375005 0 0 1 0.73276,-0.08992 z m 6.06785,0.08837 a 14.552083,7.9375005 0 0 1 0.69609,0.09715 14.552083,7.9375005 0 0 0 -0.69609,-0.09715 z m -7.48636,0.09715 a 14.552083,7.9375005 0 0 0 -0.70382,0.127124 14.552083,7.9375005 0 0 1 0.70382,-0.127124 z m 8.87595,0.125574 a 14.552083,7.9375005 0 0 1 0.68625,0.136424 14.552083,7.9375005 0 0 0 -0.68625,-0.136424 z m -10.24588,0.134358 a 14.552083,7.9375005 0 0 0 -0.68318,0.166915 14.552083,7.9375005 0 0 1 0.68318,-0.166915 z m 11.58843,0.162264 a 14.552083,7.9375005 0 0 1 0.65474,0.172601 14.552083,7.9375005 0 0 0 -0.65474,-0.172601 z m -12.90775,0.172082 a 14.552083,7.9375005 0 0 0 -0.63974,0.199988 14.552083,7.9375005 0 0 1 0.63974,-0.199988 z m 14.20069,0.199988 a 14.552083,7.9375005 0 0 1 0.61754,0.206706 14.552083,7.9375005 0 0 0 -0.61754,-0.206706 z m -15.45746,0.206706 a 14.552083,7.9375005 0 0 0 -0.58653,0.228928 14.552083,7.9375005 0 0 1 0.58653,-0.228928 z m 16.65584,0.226343 a 14.552083,7.9375005 0 0 1 0.59015,0.244946 14.552083,7.9375005 0 0 0 -0.59015,-0.244946 z m -17.82371,0.243395 a 14.552083,7.9375005 0 0 0 -0.54158,0.259416 14.552083,7.9375005 0 0 1 0.54158,-0.259416 z m 18.94872,0.257866 a 14.552083,7.9375005 0 0 1 0.54311,0.275952 14.552083,7.9375005 0 0 0 -0.54311,-0.275952 z m -20.03031,0.275952 a 14.552083,7.9375005 0 0 0 -0.48887,0.286287 14.552083,7.9375005 0 0 1 0.48887,-0.286287 z m 21.06538,0.288356 a 14.552083,7.9375005 0 0 1 0.4775,0.296106 14.552083,7.9375005 0 0 0 -0.4775,-0.296106 z m -22.03794,0.298173 a 14.552083,7.9375005 0 0 0 -0.43976,0.315743 14.552083,7.9375005 0 0 1 0.43976,-0.315743 z m 22.96398,0.319876 a 14.552083,7.9375005 0 0 1 0.41548,0.316777 14.552083,7.9375005 0 0 0 -0.41548,-0.316777 z m -23.82491,0.317293 a 14.552083,7.9375005 0 0 0 -0.3798,0.337448 14.552083,7.9375005 0 0 1 0.3798,-0.337448 z m 24.6202,0.337448 a 14.552083,7.9375005 0 0 1 0.36536,0.347265 14.552083,7.9375005 0 0 0 -0.36536,-0.347265 z m -25.36537,0.347265 a 14.552083,7.9375005 0 0 0 -0.31263,0.353467 14.552083,7.9375005 0 0 1 0.31263,-0.353467 z m 26.04336,0.353467 a 14.552083,7.9375005 0 0 1 0.29766,0.362768 14.552083,7.9375005 0 0 0 -0.29766,-0.362768 z m -26.65365,0.362768 a 14.552083,7.9375005 0 0 0 -0.2522,0.37724 14.552083,7.9375005 0 0 1 0.2522,-0.37724 z m 27.20351,0.37724 a 14.552083,7.9375005 0 0 1 0.22582,0.37052 14.552083,7.9375005 0 0 0 -0.22582,-0.37052 z m -27.68153,0.370001 a 14.552083,7.9375005 0 0 0 -0.1819,0.388607 14.552083,7.9375005 0 0 1 0.1819,-0.388607 z m 28.08822,0.385506 a 14.552083,7.9375005 0 0 1 0.15968,0.389126 14.552083,7.9375005 0 0 0 -0.15968,-0.389126 z m -28.42876,0.388609 a 14.552083,7.9375005 0 0 0 -0.10801,0.390677 14.552083,7.9375005 0 0 1 0.10801,-0.390677 z m 28.69591,0.389126 a 14.552083,7.9375005 0 0 1 0.0884,0.396356 14.552083,7.9375005 0 0 0 -0.0884,-0.396356 z m -28.89176,0.395841 a 14.552083,7.9375005 0 0 0 -0.062,0.676443 14.552083,7.9375005 0 0 1 0.062,-0.676443 z m -0.062,0.676443 v 3.96875 a 14.552083,7.9375005 0 0 0 14.55209,7.9375 14.552083,7.9375005 0 0 0 14.55208,-7.9375 v -3.96875 a 14.552083,7.9375005 0 0 1 -14.55208,7.9375 14.552083,7.9375005 0 0 1 -14.55209,-7.9375 z"
       id="path4505-0-5-0"
       inkscape:connector-curvature="0" />
    <path
       style="opacity:1;fill:#000000;fill-opacity:0.49833889;stroke:none;stroke-width:1.10539305;stroke-miterlimit:2.66666675;stroke-dasharray:none;stroke-dashoffset:0;stroke-opacity:1"
       d="m 486.83333,-84 a 14.552083,7.9375005 0 0 1 1.25005,0.03411 A 14.552083,7.9375005 0 0 0 486.83333,-84 Z m -1.23661,0.03411 a 14.552083,7.9375005 0 0 0 -0.73898,0.04857 14.552083,7.9375005 0 0 1 0.73898,-0.04857 z m 3.17965,0.04599 a 14.552083,7.9375005 0 0 1 0.74052,0.06098 14.552083,7.9375005 0 0 0 -0.74052,-0.06098 z m -4.61576,0.05994 a 14.552083,7.9375005 0 0 0 -0.73276,0.08992 14.552083,7.9375005 0 0 1 0.73276,-0.08992 z m 6.06785,0.08837 a 14.552083,7.9375005 0 0 1 0.69609,0.09715 14.552083,7.9375005 0 0 0 -0.69609,-0.09715 z m -7.48636,0.09715 a 14.552083,7.9375005 0 0 0 -0.70382,0.127124 14.552083,7.9375005 0 0 1 0.70382,-0.127124 z m 8.87595,0.125574 a 14.552083,7.9375005 0 0 1 0.68625,0.136424 14.552083,7.9375005 0 0 0 -0.68625,-0.136424 z m -10.24588,0.134358 a 14.552083,7.9375005 0 0 0 -0.68318,0.166915 14.552083,7.9375005 0 0 1 0.68318,-0.166915 z m 11.58843,0.162264 a 14.552083,7.9375005 0 0 1 0.65474,0.172601 14.552083,7.9375005 0 0 0 -0.65474,-0.172601 z m -12.90775,0.172082 a 14.552083,7.9375005 0 0 0 -0.63974,0.199988 14.552083,7.9375005 0 0 1 0.63974,-0.199988 z m 14.20069,0.199988 a 14.552083,7.9375005 0 0 1 0.61754,0.206706 14.552083,7.9375005 0 0 0 -0.61754,-0.206706 z m -15.45746,0.206706 a 14.552083,7.9375005 0 0 0 -0.58653,0.228928 14.552083,7.9375005 0 0 1 0.58653,-0.228928 z m 16.65584,0.226343 a 14.552083,7.9375005 0 0 1 0.59015,0.244946 14.552083,7.9375005 0 0 0 -0.59015,-0.244946 z m -17.82371,0.243395 a 14.552083,7.9375005 0 0 0 -0.54158,0.259416 14.552083,7.9375005 0 0 1 0.54158,-0.259416 z m 18.94872,0.257866 a 14.552083,7.9375005 0 0 1 0.54311,0.275952 14.552083,7.9375005 0 0 0 -0.54311,-0.275952 z m -20.03031,0.275952 a 14.552083,7.9375005 0 0 0 -0.48887,0.286287 14.552083,7.9375005 0 0 1 0.48887,-0.286287 z m 21.06538,0.288356 a 14.552083,7.9375005 0 0 1 0.4775,0.296106 14.552083,7.9375005 0 0 0 -0.4775,-0.296106 z m -22.03794,0.298173 a 14.552083,7.9375005 0 0 0 -0.43976,0.315743 14.552083,7.9375005 0 0 1 0.43976,-0.315743 z m 22.96398,0.319876 a 14.552083,7.9375005 0 0 1 0.41548,0.316777 14.552083,7.9375005 0 0 0 -0.41548,-0.316777 z m -23.82491,0.317293 a 14.552083,7.9375005 0 0 0 -0.3798,0.337447 14.552083,7.9375005 0 0 1 0.3798,-0.337447 z m 24.6202,0.337447 a 14.552083,7.9375005 0 0 1 0.36536,0.347266 14.552083,7.9375005 0 0 0 -0.36536,-0.347266 z m -25.36537,0.347266 a 14.552083,7.9375005 0 0 0 -0.31263,0.353467 14.552083,7.9375005 0 0 1 0.31263,-0.353467 z m 26.04336,0.353467 a 14.552083,7.9375005 0 0 1 0.29766,0.362768 14.552083,7.9375005 0 0 0 -0.29766,-0.362768 z m -26.65365,0.362768 a 14.552083,7.9375005 0 0 0 -0.2522,0.37724 14.552083,7.9375005 0 0 1 0.2522,-0.37724 z m 27.20351,0.37724 a 14.552083,7.9375005 0 0 1 0.22582,0.37052 14.552083,7.9375005 0 0 0 -0.22582,-0.37052 z m -27.68153,0.370001 a 14.552083,7.9375005 0 0 0 -0.1819,0.388607 14.552083,7.9375005 0 0 1 0.1819,-0.388607 z m 28.08822,0.385506 a 14.552083,7.9375005 0 0 1 0.15968,0.389126 14.552083,7.9375005 0 0 0 -0.15968,-0.389126 z m -28.42876,0.388609 a 14.552083,7.9375005 0 0 0 -0.10801,0.390676 14.552083,7.9375005 0 0 1 0.10801,-0.390676 z m 28.69591,0.389125 a 14.552083,7.9375005 0 0 1 0.0884,0.396357 14.552083,7.9375005 0 0 0 -0.0884,-0.396357 z m -28.89176,0.395841 a 14.552083,7.9375005 0 0 0 -0.062,0.676444 14.552083,7.9375005 0 0 1 0.062,-0.676444 z m -0.062,0.676444 v 3.96875 a 14.552083,7.9375005 0 0 0 14.55209,7.9375 14.552083,7.9375005 0 0 0 14.55208,-7.9375 v -3.96875 a 14.552083,7.9375005 0 0 1 -14.55208,7.9375 14.552083,7.9375005 0 0 1 -14.55209,-7.9375 z"
       id="path4505-0-5-9"
       inkscape:connector-curvature="0" />
    <g
       id="g6171"
       transform="translate(0,5.2211807e-6)">
      <g
         transform="translate(116.41665)"
         id="g4743">
        <g
           id="g4790">
          <rect
             y="-4.625"
             x="592.66669"
             height="68.791664"
             width="68.791664"
             id="rect1386"
             style="opacity:1;fill:none;fill-opacity:1;stroke:#000000;stroke-width:1.05833328;stroke-miterlimit:2.66666675;stroke-dasharray:none;stroke-dashoffset:0;stroke-opacity:1" />
          <rect
             y="-4.625"
             x="746.125"
             height="68.791664"
             width="116.41665"
             id="rect1386-2"
             style="opacity:1;fill:none;fill-opacity:1;stroke:#000000;stroke-width:1.05833328;stroke-miterlimit:2.66666675;stroke-dasharray:none;stroke-dashoffset:0;stroke-opacity:1" />
          <rect
             y="0.66666663"
             x="751.41669"
             height="58.208332"
             width="31.75"
             id="rect1403"
             style="opacity:1;fill:none;fill-opacity:1;stroke:#000000;stroke-width:1.05833328;stroke-miterlimit:2.66666675;stroke-dasharray:none;stroke-dashoffset:0;stroke-opacity:1" />
          <rect
             y="0.66666669"
             x="788.45831"
             height="58.208332"
             width="31.75"
             id="rect1403-0"
             style="opacity:1;fill:none;fill-opacity:1;stroke:#000000;stroke-width:1.05833328;stroke-miterlimit:2.66666675;stroke-dasharray:none;stroke-dashoffset:0;stroke-opacity:1" />
          <rect
             y="0.66666669"
             x="825.5"
             height="58.208332"
             width="31.75"
             id="rect1403-6"
             style="opacity:1;fill:none;fill-opacity:1;stroke:#000000;stroke-width:1.05833328;stroke-miterlimit:2.66666675;stroke-dasharray:none;stroke-dashoffset:0;stroke-opacity:1" />
          <rect
             y="0.66666698"
             x="597.95831"
             height="58.208332"
             width="26.458345"
             id="rect1403-8"
             style="opacity:1;fill:none;fill-opacity:1;stroke:#000000;stroke-width:1.05833328;stroke-miterlimit:2.66666675;stroke-dasharray:none;stroke-dashoffset:0;stroke-opacity:1" />
          <rect
             y="0.66666698"
             x="629.70831"
             height="58.208332"
             width="26.458345"
             id="rect1403-0-9"
             style="opacity:1;fill:none;fill-opacity:1;stroke:#000000;stroke-width:1.05833328;stroke-miterlimit:2.66666675;stroke-dasharray:none;stroke-dashoffset:0;stroke-opacity:1" />
          <text
             transform="rotate(-90)"
             id="text851-61-4-7-4-2"
             y="617.79633"
             x="-55.847607"
             style="font-style:normal;font-weight:normal;font-size:18.13112831px;line-height:1.25;font-family:sans-serif;letter-spacing:0px;word-spacing:0px;fill:#000000;fill-opacity:1;stroke:none;stroke-width:0.45327818"
             xml:space="preserve"><tspan
               style="stroke-width:0.45327818"
               y="617.79633"
               x="-55.847607"
               id="tspan849-8-5-4-9-6"
               sodipodi:role="line">HTML</tspan></text>
          <text
             id="text851-61-4-7-3-6"
             y="35.438"
             x="634.33972"
             style="font-style:normal;font-weight:normal;font-size:20.91235924px;line-height:1.25;font-family:sans-serif;letter-spacing:0px;word-spacing:0px;fill:#000000;fill-opacity:1;stroke:none;stroke-width:0.52280897"
             xml:space="preserve"><tspan
               style="stroke-width:0.52280897"
               y="35.438"
               x="634.33972"
               id="tspan849-8-5-4-1-4"
               sodipodi:role="line">JS</tspan></text>
          <text
             id="text851-61-4-7-4-2-9"
             y="20.838531"
             x="755.0495"
             style="font-style:normal;font-weight:normal;font-size:10.1629734px;line-height:1.25;font-family:sans-serif;letter-spacing:0px;word-spacing:0px;fill:#000000;fill-opacity:1;stroke:none;stroke-width:0.25407431"
             xml:space="preserve"><tspan
               style="font-size:10.58333302px;stroke-width:0.25407431"
               y="20.838531"
               x="755.0495"
               id="tspan849-8-5-4-9-6-5"
               sodipodi:role="line">CON</tspan><tspan
               id="tspan1840"
               style="font-size:10.58333302px;stroke-width:0.25407431"
               y="34.067699"
               x="755.0495"
               sodipodi:role="line">TRO</tspan><tspan
               id="tspan1842"
               style="font-size:10.58333302px;stroke-width:0.25407431"
               y="47.296864"
               x="755.0495"
               sodipodi:role="line">LLER</tspan></text>
          <text
             id="text874-5-1"
             y="20.394144"
             x="793.41669"
             style="font-style:normal;font-weight:normal;font-size:10.58333302px;line-height:1.25;font-family:sans-serif;letter-spacing:0px;word-spacing:0px;fill:#000000;fill-opacity:1;stroke:none;stroke-width:0.26458332"
             xml:space="preserve"><tspan
               id="tspan878-0-7"
               style="font-size:10.58333302px;stroke-width:0.26458332"
               y="20.394144"
               x="793.41669"
               sodipodi:role="line">BUS</tspan><tspan
               id="tspan963-3-2"
               style="font-size:10.58333302px;stroke-width:0.26458332"
               y="33.62331"
               x="793.41669"
               sodipodi:role="line">INE</tspan><tspan
               id="tspan965-6-7"
               style="font-size:10.58333302px;stroke-width:0.26458332"
               y="46.852478"
               x="793.41669"
               sodipodi:role="line">SS</tspan></text>
          <path
             sodipodi:nodetypes="cc"
             inkscape:connector-curvature="0"
             id="path1426"
             d="m 664.10417,16.78984 h 76.72916"
             style="fill:none;stroke:#000000;stroke-width:1.05833328;stroke-linecap:butt;stroke-linejoin:miter;stroke-miterlimit:4;stroke-dasharray:none;stroke-opacity:1;marker-end:url(#Arrow2Mend)" />
          <g
             transform="translate(10.401268,0.15520087)"
             id="g2651">
            <text
               xml:space="preserve"
               style="font-style:normal;font-weight:normal;font-size:6.16462088px;line-height:1.25;font-family:sans-serif;letter-spacing:0px;word-spacing:0px;fill:#000000;fill-opacity:1;stroke:none;stroke-width:0.15411551"
               x="682.44196"
               y="9.3590498"
               id="text851-61-4-2"><tspan
                 sodipodi:role="line"
                 id="tspan849-8-5-2"
                 x="682.44196"
                 y="9.3590498"
                 style="stroke-width:0.15411551">requête HTTP</tspan></text>
            <text
               xml:space="preserve"
               style="font-style:normal;font-weight:normal;font-size:6.10879421px;line-height:1.25;font-family:sans-serif;letter-spacing:0px;word-spacing:0px;fill:#000000;fill-opacity:1;stroke:none;stroke-width:0.15271987"
               x="662.7251"
               y="9.1501398"
               id="text1363-6"><tspan
                 sodipodi:role="line"
                 id="tspan1361-1"
                 x="662.7251"
                 y="9.1501398"
                 style="stroke-width:0.15271987">AJAX</tspan></text>
          </g>
          <path
             style="fill:none;stroke:#000000;stroke-width:1.05833328;stroke-linecap:butt;stroke-linejoin:miter;stroke-miterlimit:4;stroke-dasharray:none;stroke-opacity:1;marker-end:url(#marker3197)"
             d="M 742.43336,43.155159 H 665.7042"
             id="path3193"
             inkscape:connector-curvature="0"
             sodipodi:nodetypes="cc" />
          <text
             id="text851-61-4-7-0"
             y="53.723778"
             x="696.65631"
             style="font-style:normal;font-weight:normal;font-size:6.16462088px;line-height:1.25;font-family:sans-serif;letter-spacing:0px;word-spacing:0px;fill:#000000;fill-opacity:1;stroke:none;stroke-width:0.15411551"
             xml:space="preserve"><tspan
               style="stroke-width:0.15411551"
               y="53.723778"
               x="696.65631"
               id="tspan849-8-5-4-6"
               sodipodi:role="line">JSON</tspan></text>
          <text
             id="text851-56-8-1"
             y="71.626663"
             x="592.62256"
             style="font-style:normal;font-weight:normal;font-size:5.65395451px;line-height:1.25;font-family:sans-serif;letter-spacing:0px;word-spacing:0px;fill:#000000;fill-opacity:1;stroke:none;stroke-width:0.14134884"
             xml:space="preserve"><tspan
               style="stroke-width:0.14134884"
               y="71.626663"
               x="592.62256"
               id="tspan849-2-4-5"
               sodipodi:role="line">Appli client HTML/CSS JS</tspan></text>
          <g
             transform="matrix(1.3705801,0,0,1.3705801,-371.40299,-4.0589945)"
             id="g3911">
            <text
               xml:space="preserve"
               style="font-style:normal;font-weight:normal;font-size:10.58333302px;line-height:1.25;font-family:sans-serif;letter-spacing:0px;word-spacing:0px;fill:#000000;fill-opacity:1;stroke:none;stroke-width:0.26458332"
               x="880.69958"
               y="37.558472"
               id="text837-7-9"><tspan
                 sodipodi:role="line"
                 x="880.69958"
                 y="37.558472"
                 style="stroke-width:0.26458332"
                 id="tspan841-1-0">O</tspan></text>
            <text
               xml:space="preserve"
               style="font-style:normal;font-weight:normal;font-size:10.58333302px;line-height:1.25;font-family:sans-serif;letter-spacing:0px;word-spacing:0px;fill:#000000;fill-opacity:1;stroke:none;stroke-width:0.26458332"
               x="880.58331"
               y="19.372663"
               id="text837-7-9-9"><tspan
                 sodipodi:role="line"
                 id="tspan835-3-4-1"
                 x="880.58331"
                 y="19.372663"
                 style="stroke-width:0.26458332">D</tspan><tspan
                 sodipodi:role="line"
                 x="880.58331"
                 y="32.60183"
                 style="stroke-width:0.26458332"
                 id="tspan841-1-0-7" /></text>
            <text
               xml:space="preserve"
               style="font-style:normal;font-weight:normal;font-size:10.58333302px;line-height:1.25;font-family:sans-serif;letter-spacing:0px;word-spacing:0px;fill:#000000;fill-opacity:1;stroke:none;stroke-width:0.26458332"
               x="880.69196"
               y="43.666378"
               id="text837-7-9-1"
               transform="rotate(-0.98906989)"><tspan
                 sodipodi:role="line"
                 x="880.69196"
                 y="43.666378"
                 style="stroke-width:0.26458332"
                 id="tspan841-1-0-77">A</tspan></text>
          </g>
          <path
             sodipodi:nodetypes="cc"
             inkscape:connector-curvature="0"
             id="path1426-6"
             d="m 867.83333,29.781001 h 15.875"
             style="fill:none;stroke:#000000;stroke-width:1.05833328;stroke-linecap:butt;stroke-linejoin:miter;stroke-miterlimit:4;stroke-dasharray:none;stroke-opacity:1;marker-end:url(#Arrow2Mend-6)" />
          <g
             transform="translate(0,1.1609738)"
             id="g4664">
            <path
               style="opacity:1;fill:#000000;fill-opacity:1;stroke:none;stroke-width:1.10539305;stroke-miterlimit:2.66666675;stroke-dasharray:none;stroke-dashoffset:0;stroke-opacity:1"
               d="m 904.875,11.92315 a 14.552083,7.9375004 0 0 0 -14.55208,7.9375 v 3.96875 a 14.552083,7.9375004 0 0 0 4.95421,5.953125 14.552083,7.9375004 0 0 0 9.59787,1.984375 14.552083,7.9375004 0 0 0 14.55208,-7.9375 V 19.86065 A 14.552083,7.9375004 0 0 0 904.875,11.92315 Z m -14.55208,13.229167 v 3.96875 a 14.552083,7.9375004 0 0 0 14.55208,7.9375 14.552083,7.9375004 0 0 0 13.20953,-4.630209 14.552083,7.9375004 0 0 0 1.34255,-3.307291 v -3.96875 a 14.552083,7.9375004 0 0 1 -3.72792,5.292701 14.552083,7.9375004 0 0 1 -10.82416,2.644799 14.552083,7.9375004 0 0 1 -14.55208,-7.9375 z m 4.26537,4.975923 a 14.552083,7.9375004 0 0 0 -0.48887,0.286287 14.552083,7.9375004 0 0 1 0.48887,-0.286287 z m -4.26537,0.315743 v 3.96875 a 14.552083,7.9375004 0 0 0 14.55208,7.9375 14.552083,7.9375004 0 0 0 14.55208,-7.9375 v -3.96875 a 14.552083,7.9375004 0 0 1 -14.55208,7.9375 14.552083,7.9375004 0 0 1 -13.702,-5.2896 14.552083,7.9375004 0 0 1 -0.85008,-2.6479 z m 0,5.291667 v 3.96875 a 14.552083,7.9375004 0 0 0 14.55208,7.9375 14.552083,7.9375004 0 0 0 14.55208,-7.9375 v -3.96875 a 14.552083,7.9375004 0 0 1 -14.55208,7.9375 14.552083,7.9375004 0 0 1 -14.55208,-7.9375 z"
               id="path4505-0-5-6"
               inkscape:connector-curvature="0" />
            <text
               xml:space="preserve"
               style="font-style:normal;font-weight:normal;font-size:10.58333302px;line-height:1.25;font-family:sans-serif;letter-spacing:0px;word-spacing:0px;fill:#000000;fill-opacity:1;stroke:none;stroke-width:0.26458332"
               x="892.8938"
               y="8.575099"
               id="text833-8-6"><tspan
                 sodipodi:role="line"
                 id="tspan831-9-1"
                 x="892.8938"
                 y="8.575099"
                 style="stroke-width:0.26458332">BDD</tspan></text>
            <text
               xml:space="preserve"
               style="font-style:normal;font-weight:normal;font-size:6.16462088px;line-height:1.25;font-family:sans-serif;letter-spacing:0px;word-spacing:0px;fill:#000000;fill-opacity:1;stroke:none;stroke-width:0.15411551"
               x="898.5885"
               y="55.56525"
               id="text851-6-2-6-1"><tspan
                 sodipodi:role="line"
                 id="tspan849-7-3-9-5"
                 x="898.5885"
                 y="55.56525"
                 style="stroke-width:0.15411551">SQL</tspan></text>
          </g>
        </g>
      </g>
      <text
         id="text823-7-9"
         y="-17.40975"
         x="709.00061"
         style="font-style:normal;font-weight:normal;font-size:10.58333302px;line-height:1.25;font-family:sans-serif;letter-spacing:0px;word-spacing:0px;fill:#000000;fill-opacity:1;stroke:none;stroke-width:0.26458332"
         xml:space="preserve"><tspan
           style="stroke-width:0.26458332"
           y="-17.40975"
           x="709.00061"
           id="tspan821-5-8"
           sodipodi:role="line">Appli client serveur</tspan></text>
    </g>
    <path
       style="fill:none;stroke:#7e7e7e;stroke-width:1.05799997;stroke-linecap:butt;stroke-linejoin:miter;stroke-miterlimit:4;stroke-dasharray:6.348, 1.058;stroke-dashoffset:0;stroke-opacity:1"
       d="M 724.03229,95.869512 H 1020.3656"
       id="path4696"
       inkscape:connector-curvature="0" />
    <rect
       y="140.30399"
       x="863.0838"
       height="104.74918"
       width="116.17563"
       id="rect4888"
       style="opacity:1;fill:none;fill-opacity:1;stroke:#000000;stroke-width:1.08415186;stroke-miterlimit:2.66666675;stroke-dasharray:none;stroke-dashoffset:0;stroke-opacity:1" />
    <rect
       y="145.05357"
       x="867.83331"
       height="58.208332"
       width="31.75"
       id="rect4890"
       style="opacity:1;fill:none;fill-opacity:1;stroke:#000000;stroke-width:1.05833328;stroke-miterlimit:2.66666675;stroke-dasharray:none;stroke-dashoffset:0;stroke-opacity:1" />
    <rect
       y="145.05357"
       x="904.87494"
       height="58.208332"
       width="31.75"
       id="rect4892"
       style="opacity:1;fill:none;fill-opacity:1;stroke:#000000;stroke-width:1.05833328;stroke-miterlimit:2.66666675;stroke-dasharray:none;stroke-dashoffset:0;stroke-opacity:1" />
    <rect
       y="145.05357"
       x="941.91663"
       height="58.208332"
       width="31.75"
       id="rect4894"
       style="opacity:1;fill:none;fill-opacity:1;stroke:#000000;stroke-width:1.05833328;stroke-miterlimit:2.66666675;stroke-dasharray:none;stroke-dashoffset:0;stroke-opacity:1" />
    <text
       id="text4914"
       y="165.22543"
       x="871.46613"
       style="font-style:normal;font-weight:normal;font-size:10.1629734px;line-height:1.25;font-family:sans-serif;letter-spacing:0px;word-spacing:0px;fill:#000000;fill-opacity:1;stroke:none;stroke-width:0.25407431"
       xml:space="preserve"><tspan
         style="font-size:10.58333302px;stroke-width:0.25407431"
         y="165.22543"
         x="871.46613"
         id="tspan4908"
         sodipodi:role="line">CON</tspan><tspan
         id="tspan4910"
         style="font-size:10.58333302px;stroke-width:0.25407431"
         y="178.45461"
         x="871.46613"
         sodipodi:role="line">TRO</tspan><tspan
         id="tspan4912"
         style="font-size:10.58333302px;stroke-width:0.25407431"
         y="191.68376"
         x="871.46613"
         sodipodi:role="line">LLER</tspan></text>
    <g
       id="g5259"
       transform="translate(0,22.67857)">
      <path
         style="fill:none;stroke:#000000;stroke-width:1.05833328;stroke-linecap:butt;stroke-linejoin:miter;stroke-miterlimit:4;stroke-dasharray:none;stroke-opacity:1;marker-end:url(#marker5182)"
         d="m 780.52082,138.49817 h 76.72916"
         id="path4924"
         inkscape:connector-curvature="0"
         sodipodi:nodetypes="cc" />
      <g
         id="g4934"
         transform="translate(116.1805,121.86353)">
        <text
           id="text4928"
           y="9.3590498"
           x="682.44196"
           style="font-style:normal;font-weight:normal;font-size:6.16462088px;line-height:1.25;font-family:sans-serif;letter-spacing:0px;word-spacing:0px;fill:#000000;fill-opacity:1;stroke:none;stroke-width:0.15411551"
           xml:space="preserve"><tspan
             style="stroke-width:0.15411551"
             y="9.3590498"
             x="682.44196"
             id="tspan4926"
             sodipodi:role="line">requête HTTP</tspan></text>
        <text
           id="text4932"
           y="9.1501398"
           x="662.7251"
           style="font-style:normal;font-weight:normal;font-size:6.10879421px;line-height:1.25;font-family:sans-serif;letter-spacing:0px;word-spacing:0px;fill:#000000;fill-opacity:1;stroke:none;stroke-width:0.15271987"
           xml:space="preserve"><tspan
             style="stroke-width:0.15271987"
             y="14.554991"
             x="662.7251"
             id="tspan4930"
             sodipodi:role="line" /></text>
      </g>
      <path
         sodipodi:nodetypes="cc"
         inkscape:connector-curvature="0"
         id="path4936"
         d="M 858.85001,164.86349 H 782.12085"
         style="fill:none;stroke:#000000;stroke-width:1.05833328;stroke-linecap:butt;stroke-linejoin:miter;stroke-miterlimit:4;stroke-dasharray:none;stroke-opacity:1;marker-end:url(#marker3197)" />
      <text
         xml:space="preserve"
         style="font-style:normal;font-weight:normal;font-size:6.16462088px;line-height:1.25;font-family:sans-serif;letter-spacing:0px;word-spacing:0px;fill:#000000;fill-opacity:1;stroke:none;stroke-width:0.15411551"
         x="810.81927"
         y="175.43211"
         id="text4940"><tspan
           sodipodi:role="line"
           id="tspan4938"
           x="810.81927"
           y="175.43211"
           style="stroke-width:0.15411551">HTML</tspan></text>
    </g>
    <path
       sodipodi:nodetypes="cc"
       inkscape:connector-curvature="0"
       id="path4962"
       d="M 984.24998,174.1679 H 1000.125"
       style="fill:none;stroke:#000000;stroke-width:1.05833328;stroke-linecap:butt;stroke-linejoin:miter;stroke-miterlimit:4;stroke-dasharray:none;stroke-opacity:1;marker-end:url(#marker5299)" />
    <g
       transform="translate(116.41665,145.54787)"
       id="g4974">
      <path
         style="opacity:1;fill:#000000;fill-opacity:1;stroke:none;stroke-width:1.10539305;stroke-miterlimit:2.66666675;stroke-dasharray:none;stroke-dashoffset:0;stroke-opacity:1"
         d="m 904.875,11.92315 a 14.552083,7.9375004 0 0 0 -14.55208,7.9375 v 3.96875 a 14.552083,7.9375004 0 0 0 4.95421,5.953125 14.552083,7.9375004 0 0 0 9.59787,1.984375 14.552083,7.9375004 0 0 0 14.55208,-7.9375 V 19.86065 A 14.552083,7.9375004 0 0 0 904.875,11.92315 Z m -14.55208,13.229167 v 3.96875 a 14.552083,7.9375004 0 0 0 14.55208,7.9375 14.552083,7.9375004 0 0 0 13.20953,-4.630209 14.552083,7.9375004 0 0 0 1.34255,-3.307291 v -3.96875 a 14.552083,7.9375004 0 0 1 -3.72792,5.292701 14.552083,7.9375004 0 0 1 -10.82416,2.644799 14.552083,7.9375004 0 0 1 -14.55208,-7.9375 z m 4.26537,4.975923 a 14.552083,7.9375004 0 0 0 -0.48887,0.286287 14.552083,7.9375004 0 0 1 0.48887,-0.286287 z m -4.26537,0.315743 v 3.96875 a 14.552083,7.9375004 0 0 0 14.55208,7.9375 14.552083,7.9375004 0 0 0 14.55208,-7.9375 v -3.96875 a 14.552083,7.9375004 0 0 1 -14.55208,7.9375 14.552083,7.9375004 0 0 1 -13.702,-5.2896 14.552083,7.9375004 0 0 1 -0.85008,-2.6479 z m 0,5.291667 v 3.96875 a 14.552083,7.9375004 0 0 0 14.55208,7.9375 14.552083,7.9375004 0 0 0 14.55208,-7.9375 v -3.96875 a 14.552083,7.9375004 0 0 1 -14.55208,7.9375 14.552083,7.9375004 0 0 1 -14.55208,-7.9375 z"
         id="path4964"
         inkscape:connector-curvature="0" />
      <text
         xml:space="preserve"
         style="font-style:normal;font-weight:normal;font-size:10.58333302px;line-height:1.25;font-family:sans-serif;letter-spacing:0px;word-spacing:0px;fill:#000000;fill-opacity:1;stroke:none;stroke-width:0.26458332"
         x="892.8938"
         y="8.575099"
         id="text4968"><tspan
           sodipodi:role="line"
           id="tspan4966"
           x="892.8938"
           y="8.575099"
           style="stroke-width:0.26458332">BDD</tspan></text>
      <text
         xml:space="preserve"
         style="font-style:normal;font-weight:normal;font-size:6.16462088px;line-height:1.25;font-family:sans-serif;letter-spacing:0px;word-spacing:0px;fill:#000000;fill-opacity:1;stroke:none;stroke-width:0.15411551"
         x="898.5885"
         y="55.56525"
         id="text4972"><tspan
           sodipodi:role="line"
           id="tspan4970"
           x="898.5885"
           y="55.56525"
           style="stroke-width:0.15411551">SQL</tspan></text>
    </g>
    <text
       id="text4982"
       y="126.97715"
       x="709.00061"
       style="font-style:normal;font-weight:normal;font-size:10.58333302px;line-height:1.25;font-family:sans-serif;letter-spacing:0px;word-spacing:0px;fill:#000000;fill-opacity:1;stroke:none;stroke-width:0.26458332"
       xml:space="preserve"><tspan
         style="stroke-width:0.26458332"
         y="126.97715"
         x="709.00061"
         id="tspan4980"
         sodipodi:role="line">Appli serveur</tspan></text>
    <g
       id="g5295"
       transform="translate(0,22.411298)">
      <rect
         style="opacity:1;fill:none;fill-opacity:1;stroke:#000000;stroke-width:1.05833328;stroke-miterlimit:2.66666675;stroke-dasharray:none;stroke-dashoffset:0;stroke-opacity:1"
         id="rect4886"
         width="50.366264"
         height="50.366264"
         x="727.65045"
         y="126.49424" />
      <text
         xml:space="preserve"
         style="font-style:normal;font-weight:normal;font-size:5.65395451px;line-height:1.25;font-family:sans-serif;letter-spacing:0px;word-spacing:0px;fill:#000000;fill-opacity:1;stroke:none;stroke-width:0.14134884"
         x="744.55554"
         y="184.63933"
         id="text4944"><tspan
           sodipodi:role="line"
           id="tspan4942"
           x="744.55554"
           y="184.63933"
           style="stroke-width:0.14134884">Client</tspan></text>
      <text
         xml:space="preserve"
         style="font-style:normal;font-weight:normal;font-size:5.65395498px;line-height:1.25;font-family:sans-serif;letter-spacing:0px;word-spacing:0px;fill:#000000;fill-opacity:1;stroke:none;stroke-width:0.14134884"
         x="736.91663"
         y="121.83504"
         id="text4944-4"><tspan
           sodipodi:role="line"
           id="tspan4942-8"
           x="736.91663"
           y="121.83504"
           style="stroke-width:0.14134884">Navigateur</tspan></text>
    </g>
    <rect
       y="220.46509"
       x="867.58795"
       height="19.382919"
       width="32.240696"
       id="rect4890-1"
       style="opacity:1;fill:none;fill-opacity:1;stroke:#000000;stroke-width:0.9111166;stroke-miterlimit:2.66666675;stroke-dasharray:none;stroke-dashoffset:0;stroke-opacity:1" />
    <g
       id="g6263"
       transform="translate(0,-3.9519577)">
      <text
         xml:space="preserve"
         style="font-style:normal;font-weight:normal;font-size:10.58333302px;line-height:1.25;font-family:sans-serif;letter-spacing:0px;word-spacing:0px;fill:#000000;fill-opacity:1;stroke:none;stroke-width:0.26458332"
         x="909.83331"
         y="164.78105"
         id="text4922"><tspan
           sodipodi:role="line"
           x="909.83331"
           y="164.78105"
           style="font-size:10.58333302px;stroke-width:0.26458332"
           id="tspan4916">BUS</tspan><tspan
           sodipodi:role="line"
           x="909.83331"
           y="178.01022"
           style="font-size:10.58333302px;stroke-width:0.26458332"
           id="tspan4918">INE</tspan><tspan
           sodipodi:role="line"
           x="909.83331"
           y="191.23938"
           style="font-size:10.58333302px;stroke-width:0.26458332"
           id="tspan4920">SS</tspan></text>
      <text
         id="text851-7-4-4"
         y="199.23131"
         x="910.12732"
         style="font-style:normal;font-weight:normal;font-size:4.36806774px;line-height:1.25;font-family:sans-serif;letter-spacing:0px;word-spacing:0px;fill:#000000;fill-opacity:1;stroke:none;stroke-width:0.10920167"
         xml:space="preserve"><tspan
           style="stroke-width:0.10920167"
           y="199.23131"
           x="910.12732"
           id="tspan849-9-3-4"
           sodipodi:role="line">SERVICES</tspan></text>
    </g>
    <g
       id="g6255"
       transform="translate(0,-3.6414769)">
      <g
         id="g4960"
         transform="matrix(1.3705801,0,0,1.3705801,-254.98634,140.32791)">
        <text
           id="text4948"
           y="37.558472"
           x="880.69958"
           style="font-style:normal;font-weight:normal;font-size:10.58333302px;line-height:1.25;font-family:sans-serif;letter-spacing:0px;word-spacing:0px;fill:#000000;fill-opacity:1;stroke:none;stroke-width:0.26458332"
           xml:space="preserve"><tspan
             id="tspan4946"
             style="stroke-width:0.26458332"
             y="37.558472"
             x="880.69958"
             sodipodi:role="line">O</tspan></text>
        <text
           id="text4954"
           y="19.372663"
           x="880.58331"
           style="font-style:normal;font-weight:normal;font-size:10.58333302px;line-height:1.25;font-family:sans-serif;letter-spacing:0px;word-spacing:0px;fill:#000000;fill-opacity:1;stroke:none;stroke-width:0.26458332"
           xml:space="preserve"><tspan
             style="stroke-width:0.26458332"
             y="19.372663"
             x="880.58331"
             id="tspan4950"
             sodipodi:role="line">D</tspan><tspan
             id="tspan4952"
             style="stroke-width:0.26458332"
             y="32.60183"
             x="880.58331"
             sodipodi:role="line" /></text>
        <text
           transform="rotate(-0.98906989)"
           id="text4958"
           y="43.666378"
           x="880.69196"
           style="font-style:normal;font-weight:normal;font-size:10.58333302px;line-height:1.25;font-family:sans-serif;letter-spacing:0px;word-spacing:0px;fill:#000000;fill-opacity:1;stroke:none;stroke-width:0.26458332"
           xml:space="preserve"><tspan
             id="tspan4956"
             style="stroke-width:0.26458332"
             y="43.666378"
             x="880.69196"
             sodipodi:role="line">A</tspan></text>
      </g>
      <text
         id="text851-7-4-0-4"
         y="199.23131"
         x="943.83856"
         style="font-style:normal;font-weight:normal;font-size:4.36806774px;line-height:1.25;font-family:sans-serif;letter-spacing:0px;word-spacing:0px;fill:#000000;fill-opacity:1;stroke:none;stroke-width:0.10920167"
         xml:space="preserve"><tspan
           style="stroke-width:0.10920167"
           y="199.23131"
           x="943.83856"
           id="tspan849-9-3-7-7"
           sodipodi:role="line">REPOSITORY</tspan></text>
    </g>
    <g
       id="g5171"
       transform="translate(-1.3198237e-5,30.706396)">
      <text
         xml:space="preserve"
         style="font-style:normal;font-weight:normal;font-size:10.1629734px;line-height:1.25;font-family:sans-serif;letter-spacing:0px;word-spacing:0px;fill:#000000;fill-opacity:1;stroke:none;stroke-width:0.25407431"
         x="870.08124"
         y="200.20488"
         id="text4914-0"><tspan
           sodipodi:role="line"
           x="870.08124"
           y="200.20488"
           style="font-size:10.58333302px;stroke-width:0.25407431"
           id="tspan4912-4">VIEW</tspan></text>
      <text
         id="text851-7-4-8-6"
         y="206.41074"
         x="872.62927"
         style="font-style:normal;font-weight:normal;font-size:4.36806774px;line-height:1.25;font-family:sans-serif;letter-spacing:0px;word-spacing:0px;fill:#000000;fill-opacity:1;stroke:none;stroke-width:0.10920167"
         xml:space="preserve"><tspan
           style="stroke-width:0.10920167"
           y="206.41074"
           x="872.62927"
           id="tspan849-9-3-6-3"
           sodipodi:role="line">TEMPLATE</tspan></text>
    </g>
    <text
       id="text4944-1"
       y="256.17856"
       x="912.22272"
       style="font-style:normal;font-weight:normal;font-size:8.84951401px;line-height:1.25;font-family:sans-serif;letter-spacing:0px;word-spacing:0px;fill:#000000;fill-opacity:1;stroke:none;stroke-width:0.22123781"
       xml:space="preserve"><tspan
         style="stroke-width:0.22123781"
         y="256.17856"
         x="912.22272"
         id="tspan4942-7"
         sodipodi:role="line">PHP</tspan></text>
    <text
       id="text4944-4-5"
       y="135.08197"
       x="888.67297"
       style="font-style:normal;font-weight:normal;font-size:7.6279006px;line-height:1.25;font-family:sans-serif;letter-spacing:0px;word-spacing:0px;fill:#000000;fill-opacity:1;stroke:none;stroke-width:0.19069748"
       xml:space="preserve"><tspan
         style="stroke-width:0.19069748"
         y="135.08197"
         x="888.67297"
         id="tspan4942-8-9"
         sodipodi:role="line">Langage serveur</tspan></text>
    <path
       sodipodi:nodetypes="cc"
       inkscape:connector-curvature="0"
       id="path4962-1"
       d="m 883.69814,203.2619 v 10.39599"
       style="fill:none;stroke:#000000;stroke-width:1.05833328;stroke-linecap:butt;stroke-linejoin:miter;stroke-miterlimit:4;stroke-dasharray:none;stroke-opacity:1;marker-end:url(#marker5299-6)" />
    <text
       id="text4944-1-3"
       y="266.05325"
       x="988.48175"
       style="font-style:normal;font-weight:normal;font-size:8.84951401px;line-height:1.25;font-family:sans-serif;letter-spacing:0px;word-spacing:0px;fill:#7d7d7d;fill-opacity:1;stroke:none;stroke-width:0.22123782"
       xml:space="preserve"><tspan
         style="fill:#7d7d7d;fill-opacity:1;stroke-width:0.22123782"
         y="266.05325"
         x="988.48175"
         id="tspan4942-7-6"
         sodipodi:role="line">CC-BY GuePE</tspan></text>
  </g>
</svg>
